Virginia Quality Birth to Five System (VQB5) Evaluation & Analysis
…
quality_by_ready_region 

# A tibble: 24 × 4
# Groups:   ready_region_name [9]
   ready_region_name          quality_rating       region_count percent
   <chr>                      <fct>                       <int>   <dbl>
 1 Ready Region 1 - Southwest Exceeds Expectations            7    3.26
 2 Ready Region 1 - Southwest Meets Expectations            208   96.7 
 3 Ready Region 2 - West      Exceeds Expectations            2    1.12
 4 Ready Region 2 - West      Meets Expectations            175   97.8 
 5 Ready Region 2 - West      Needs Support                   2    1.12
 6 Ready Region 3 - Southside Exceeds Expectations            8    5.3 
 7 Ready Region 3 - Southside Meets Expectations            143   94.7 
 8 Ready Region 4 - Central   Exceeds Expectations            6    1.45
 9 Ready Region 4 - Central   Meets Expectations            402   97.1 
10 Ready Region 4 - Central   Needs Support                   6    1.45
# ℹ 14 more rows
…
